Place,Name,Sex,State,Country,BirthDate,Equipment,Division,BodyweightKg,WeightClassKg,Squat1Kg,Squat2Kg,Squat3Kg,Squat4Kg,Best3SquatKg,Bench1Kg,Bench2Kg,Bench3Kg,Bench4Kg,Best3BenchKg,Deadlift1Kg,Deadlift2Kg,Deadlift3Kg,Deadlift4Kg,Best3DeadliftKg,TotalKg,Event
1,Christian Novelo,M,CA,,,Raw,Class 1,,82.5,,,,,,,,,,,,,,,254.92,254.92,D
2,Wyatt Cavanaugh,M,OK,,,Raw,Class 1,,82.5,,,,,,,,,,,,,,,172.37,172.37,D
1,Matteo Novelo,M,CA,,,Raw,Class 1,,90,,,,,,,,,,,,,,,197.4,197.4,D
1,Bryan Vandiver,M,OK,,,Single-ply,Class 1,,90,,,,,,,,,,,,,,,182.43,182.43,D
2,Mathew Carpentier,M,AZ,,,Raw,Class 1,,90,,,,,,,,,,,,,,,194.91,194.91,D
1,Erik Dye,M,OK,,,Multi-ply,Class 1,,100,,,,,,,,,,,,,,,239.95,239.95,D
1,Lamar Lewis,M,AZ,,,Raw,Class 1,,100,,,,,,,,,,,,,,,279.96,279.96,D
2,Devin-Jackson Kawewehi,M,HI,,,Raw,Class 1,,100,,,,,,,,,,,,,,,272.47,272.47,D
3,Tyler Brown,M,OK,,,Raw,Class 1,,100,,,,,,,,,,,,,,,257.41,257.41,D
4,Philip Rainey,M,OK,,,Raw,Class 1,,100,,,,,,,,,,,,,,,234.96,234.96,D
5,Darwin Cavanaugh,M,OK,,,Raw,Class 1,,100,,,,,,,,,,,,,,,147.42,147.42,D
1,Brian Fahrenfeld,M,NY,,,Single-ply,Class 1,,110,,,,,,,,,,,,,,304.9,294.93,294.93,D
1,Brent Gapusan,M,WA,,,Multi-ply,Class 1,,110,,,,,,,,,,,,,,,230.47,230.47,D
2,Peter Murphy,M,CA,,,Multi-ply,Class 1,,110,,,,,,,,,,,,,,,219.99,219.99,D
3,William Caughey,M,UT,,,Multi-ply,Class 1,,110,,,,,,,,,,,,,,,142.43,142.43,D
1,Gary Panttila,M,AZ,,,Multi-ply,Class 1,,140,,,,,,,,,,,,,,,279.96,279.96,D
1,Ann Dorschel,F,WI,,,Raw,Class 1,,44,,,,,,,,,,,,,,94.89,89.9,89.9,D
1,Michele Dodd,F,AZ,,,Raw,Class 1,,67.5,,,,,,,,,,,,,,,152.41,152.41,D
2,Amber Salvador,F,HI,,,Raw,Class 1,,67.5,,,,,,,,,,,,,,,139.93,139.93,D
3,Diana Mc Allister,F,CA,,,Raw,Class 1,,67.5,,,,,,,,,,,,,,,92.4,92.4,D
1,Brandi Kary,F,CA,,,Single-ply,Class 1,,75,,,,,,,,,,,,,,,147.42,147.42,D
1,Makaiwa Kanui,F,HI,,,Raw,Class 1,,82.5,,,,,,,,,,,,,,167.47,165.47,165.47,D
2,Asia Bell,F,AZ,,,Raw,Class 1,,82.5,,,,,,,,,,,,,,,137.44,137.44,D
3,Emalee Graham,F,UT,,,Raw,Class 1,,82.5,,,,,,,,,,,,,,,110,110,D
1,Mesha Blackwell,F,IL,,,Raw,Class 1,,90,,,,,,,,,,,,,,152.41,149.91,149.91,D
1,Natalie Caughey,F,UT,,,Single-ply,Class 1,,90,,,,,,,,,,,,,,,152.41,152.41,D
2,Catherine Mc Allister,F,CA,,,Raw,Class 1,,90,,,,,,,,,,,,,,,110,110,D
1,Crystal Luiz-Jones,F,CA,,,Raw,Class 1,,100,,,,,,,,,,,,,,,132.45,132.45,D
1,Steve Peña #1,M,CA,,,Raw,Disabled 1 40-59,,110,,,,,,,,,,,,,,,194.91,194.91,D
1,Roberto Rios,M,TX,,,Raw,Disabled 2 20-39,,82.5,,,,,,,,,,,,,,87.41,82.42,82.42,D
1,Daniel Randall III,M,IL,,,Raw,Disabled 2 20-39,,100,,,,,,,,,,,,,,129.95,124.96,124.96,D
1,Michael Clason,M,OR,,,Raw,Disabled 2 60,,110,,,,,,,,,,,,,,182.43,169.96,169.96,D
1,Marlene Wexler,F,MN,,,Raw,Disabled 2 60,,90,,,,,,,,,,,,,,,122.47,122.47,D
DQ,Jordan Rogers,M,OK,,,Raw,Juniors 20-25,,75,,,,,,,,,,,,,,,,,D
1,Fabriano Mariscal,M,TX,,,Raw,Juniors 20-25,,75,,,,,,,,,,,,,,,227.48,227.48,D
1,Michael Berrian,M,CO,,,Raw,Juniors 20-25,,100,,,,,,,,,,,,,,,267.39,267.39,D
2,Joedy Campos,M,AZ,,,Raw,Juniors 20-25,,100,,,,,,,,,,,,,,197.4,192.41,192.41,D
3,Davin Garcia,M,AZ,,,Raw,Juniors 20-25,,100,,,,,,,,,,,,,,192.41,187.42,187.42,D
1,Lorenzo McGurgan,M,AZ,,,Raw,Juniors 20-25,,110,,,,,,,,,,,,,,,254.92,254.92,D
1,Ethan Vavages,M,AZ,,,Raw,Juniors 20-25,,117.5,,,,,,,,,,,,,,227.48,219.99,219.99,D
1,Nikolai White,M,AZ,,,Single-ply,Juniors 20-25,,140,,,,,,,,,,,,,,,309.89,309.89,D
1,Darrian Justin,M,AZ,,,Raw,Juniors 20-25,,140+,,,,,,,,,,,,,,244.94,237.46,237.46,D
1,Alexandria McCarthy,F,CA,,,Raw,Juniors 20-25,,67.5,,,,,,,,,,,,,,149.91,142.43,142.43,D
2,Pamela Arce,F,TX,,,Raw,Juniors 20-25,,67.5,,,,,,,,,,,,,,,119.98,119.98,D
1,Crystal Hernandez,F,TX,,,Raw,Juniors 20-25,,90+,,,,,,,,,,,,,,192.41,187.42,187.42,D
1,Chad Bertelmann,M,HI,,,Single-ply,Law-Fire 40-47,,100,,,,,,,,,,,,,,,234.96,234.96,D
1,Jeff Holtz,M,NV,,,Raw,Law-Fire 40-47,,100,,,,,,,,,,,,,,,244.94,244.94,D
1,Freddy Crosby,M,IL,,,Single-ply,Law-Fire 40-47,,110,,,,,,,,,,,,,,,282.45,282.45,D
1,Kevin Sisk,M,AZ,,,Raw,Law-Fire 40-47,,125,,,,,,,,,,,,,,,199.9,199.9,D
1,Micah Coleman,M,IL,,,Raw,Law-Fire 40-47,,140,,,,,,,,,,,,,,212.37,209.88,209.88,D
1,Jamie Field,F,CA,,,Single-ply,Law-Fire 40-47,,56,,,,,,,,,,,,,,,144.92,144.92,D
1,Tricia Downing,F,AZ,,,Raw,Law-Fire 40-47,,67.5,,,,,,,,,,,,,,,152.41,152.41,D
1,Jason Smith #1,M,OK,,,Raw,Law-Fire 48-55,,90,,,,,,,,,,,,,,,252.42,252.42,D
1,Lance Davis,M,UT,,,Raw,Law-Fire 48-55,,100,,,,,,,,,,,,,,,204.89,204.89,D
1,Duke Gumpfer,M,HI,,,Multi-ply,Law-Fire 48-55,,117.5,,,,,,,,,,,,,,,244.94,244.94,D
1,Bill Splawn,M,WA,,,Raw,Law-Fire 48-55,,117.5,,,,,,,,,,,,,,,192.41,192.41,D
1,Artemira Sobrinho,F,,Brazil,,Raw,Law-Fire 48-55,,82.5,,,,,,,,,,,,,,,204.89,204.89,D
2,Monica Hagen,F,CA,,,Raw,Law-Fire 48-55,,82.5,,,,,,,,,,,,,,,132.45,132.45,D
1,Dan Guches,M,OR,,,Raw,Law-Fire 56-63,,90,,,,,,,,,,,,,,,234.96,234.96,D
1,Terry Putman,M,OK,,,Single-ply,Law-Fire 56-63,,110,,,,,,,,,,,,,,,282.45,282.45,D
1,Charles McFarland,M,OR,,,Multi-ply,Law-Fire 64+,,90,,,,,,,,,,,,,,,244.94,244.94,D
1,Gary Panttila Sr,M,AZ,,,Raw,Law-Fire 64+,,90,,,,,,,,,,,,,,,137.44,137.44,D
1,Dan Guches,M,OR,,,Raw,Law-Fire Open,,90,,,,,,,,,,,,,,,234.96,234.96,D
2,John Claudio-Bil,M,NV,,,Raw,Law-Fire Open,,90,,,,,,,,,,,,,,,192.41,192.41,D
1,Jeff Holtz,M,NV,,,Raw,Law-Fire Open,,100,,,,,,,,,,,,,,,244.94,244.94,D
1,Freddy Crosby,M,IL,,,Single-ply,Law-Fire Open,,110,,,,,,,,,,,,,,,282.45,282.45,D
1,Duke Gumpfer,M,HI,,,Multi-ply,Law-Fire Open,,117.5,,,,,,,,,,,,,,,244.94,244.94,D
1,Kevin Sisk,M,AZ,,,Raw,Law-Fire Open,,125,,,,,,,,,,,,,,,199.9,199.9,D
1,Alisha Howard,F,WA,,,Single-ply,Law-Fire Open,,90,,,,,,,,,,,,,,232.97,227.48,227.48,D
1,Ryland Arbuckle,M,CA,,,Raw,Law-Fire Submasters,,110,,,,,,,,,,,,,,,207.38,207.38,D
1,Trinity Parr,F,CA,,,Raw,Law-Fire Submasters,,60,,,,,,,,,,,,,,95.39,92.4,92.4,D
1,James Goeppinger,M,TX,,,Raw,Masters 40-46,,75,,,,,,,,,,,,,,,209.88,209.88,D
1,Ryan Snelling,M,MO,,,Single-ply,Masters 40-46,,75,,,,,,,,,,,,,,,285.94,285.94,D
1,Chad Bertelmann,M,HI,,,Single-ply,Masters 40-46,,100,,,,,,,,,,,,,,,234.96,234.96,D
1,Lamar Lewis,M,AZ,,,Raw,Masters 40-46,,100,,,,,,,,,,,,,,,279.96,279.96,D
1,Haloa Paakonia,M,HI,,,Raw,Masters 40-46,,110,,,,,,,,,,,,,,,235.46,235.46,D
1,Donovan Ballo,M,HI,,,Raw,Masters 40-46,,117.5,,,,,,,,,,,,,,,249.93,249.93,D
2,Richard Kamoku,M,HI,,,Raw,Masters 40-46,,117.5,,,,,,,,,,,,,,,249.93,249.93,D
1,Willis Smith,M,TX,,,Single-ply,Masters 40-46,,125,,,,,,,,,,,,,,,264.9,264.9,D
1,Tim Boyce,M,OK,,,Single-ply,Masters 40-46,,140,,,,,,,,,,,,,,,349.95,349.95,D
1,Oscar Martinez,M,WA,,,Raw,Masters 47-53,,67.5,,,,,,,,,,,,,,222.49,220.99,220.99,D
1,Marchand Flemming,M,OK,,,Raw,Masters 47-53,,82.5,,,,,,,,,,,,,,,227.48,227.48,D
2,Mike Stanchfield,M,MN,,,Raw,Masters 47-53,,82.5,,,,,,,,,,,,,,,217.5,217.5,D
1,Jason Smith #1,M,OK,,,Raw,Masters 47-53,,90,,,,,,,,,,,,,,,252.42,252.42,D
2,Shaun Smith #1,M,GA,,,Raw,Masters 47-53,,90,,,,,,,,,,,,,,,232.47,232.47,D
1,Darwin Cavanaugh,M,OK,,,Raw,Masters 47-53,,100,,,,,,,,,,,,,,,147.42,147.42,D
1,Mike Desrosiers,M,AZ,,,Raw,Masters 47-53,,110,,,,,,,,,,,,,,,244.94,244.94,D
1,Brian Fahrenfeld,M,NY,,,Single-ply,Masters 47-53,,110,,,,,,,,,,,,,,304.9,294.93,294.93,D
1,Nick Massey,M,CA,,,Multi-ply,Masters 47-53,,117.5,,,,,,,,,,,,,,,252.92,252.92,D
1,Charles McTheny,M,AZ,,,Raw,Masters 47-53,,125,,,,,,,,,,,,,,,289.94,289.94,D
1,Joe Carter,M,IN,,,Single-ply,Masters 47-53,,140,,,,,,,,,,,,,,,319.87,319.87,D
1,Deron Agaran,M,HI,,,Raw,Masters 54-60,,67.5,,,,,,,,,,,,,,182.43,177.45,177.45,D
2,James Needles,M,WA,,,Raw,Masters 54-60,,67.5,,,,,,,,,,,,,,,164.97,164.97,D
1,Ron Garofalo,M,CO,,,Raw,Masters 54-60,,82.5,,,,,,,,,,,,,,,289.94,289.94,D
2,Christopher Goyes,M,TX,,,Raw,Masters 54-60,,82.5,,,,,,,,,,,,,,,219.99,219.99,D
1,Rolando Espinoza,M,TX,,,Raw,Masters 54-60,,90,,,,,,,,,,,,,,,207.38,207.38,D
1,Bryan Vandiver,M,OK,,,Single-ply,Masters 54-60,,90,,,,,,,,,,,,,,,182.43,182.43,D
DQ,James Noblit,M,OR,,,Multi-ply,Masters 54-60,,100,,,,,,,,,,,,,,,,,D
1,Lydell Corn,M,TN,,,Single-ply,Masters 54-60,,100,,,,,,,,,,,,,,272.47,265.4,265.4,D
1,Robert Exum,M,CA,,,Multi-ply,Masters 54-60,,100,,,,,,,,,,,,,,,282.45,282.45,D
1,Tim Sparkes,M,AZ,,,Raw,Masters 54-60,,100,,,,,,,,,,,,,,,304.9,304.9,D
2,Thomas Burke,M,AZ,,,Raw,Masters 54-60,,100,,,,,,,,,,,,,,,264.9,264.9,D
2,Erik Dye,M,OK,,,Multi-ply,Masters 54-60,,100,,,,,,,,,,,,,,,239.95,239.95,D
3,Mark Webber,M,WA,,,Raw,Masters 54-60,,100,,,,,,,,,,,,,,,224.98,224.98,D
4,Lance Davis,M,UT,,,Raw,Masters 54-60,,100,,,,,,,,,,,,,,,204.89,204.89,D
1,Terry Putman,M,OK,,,Single-ply,Masters 54-60,,110,,,,,,,,,,,,,,,282.45,282.45,D
1,Tom Pennella,M,WA,,,Single-ply,Masters 54-60,,125,,,,,,,,,,,,,,,294.93,294.93,D
1,Brent Mikesell,M,WA,,,Raw,Masters 54-60,,140,,,,,,,,,,,,,,,272.47,272.47,D
1,Thomas Guiney,M,OK,,,Multi-ply,Masters 54-60,,140+,,,,,,,,,,,,,,,265.35,265.35,D
1,Chetram Mangra,M,NY,,,Single-ply,Masters 61-67,,60,,,,,,,,,,,,,,,114.99,114.99,D
1,David Constantineau,M,WI,,,Raw,Masters 61-67,,75,,,,,,,,,,,,,,,187.42,187.42,D
1,David Bertier,M,CA,,,Multi-ply,Masters 61-67,,82.5,,,,,,,,,,,,,,,237.95,237.95,D
1,Richard Cirigliano,M,CA,,,Single-ply,Masters 61-67,,82.5,,,,,,,,,,,,,,,204.89,204.89,D
1,Charles McFarland,M,OR,,,Multi-ply,Masters 61-67,,90,,,,,,,,,,,,,,,244.94,244.94,D
2,Charles McFarland,M,OR,,,Multi-ply,Masters 61-67,,90,,,,,,,,,,,,,,,244.94,244.94,D
1,Jim Curley,M,CO,,,Multi-ply,Masters 61-67,,100,,,,,,,,,,,,,,,192.41,192.41,D
1,James Sullivan,M,AZ,,,Raw,Masters 61-67,,100,,,,,,,,,,,,,,,229.97,229.97,D
1,Tim Welton,M,CO,,,Single-ply,Masters 61-67,,100,,,,,,,,,,,,,,,204.89,204.89,D
3,James Spainhower,M,AZ,,,Raw,Masters 61-67,,100,,,,,,,,,,,,,,,142.43,142.43,D
2,Gene Wenzel,M,OH,,,Raw,Masters 61-67,,100,,,,,,,,,,,,,,,194.91,194.91,D
1,William Caughey,M,UT,,,Multi-ply,Masters 61-67,,110,,,,,,,,,,,,,,,142.43,142.43,D
1,Wayne Sowers,M,ME,,,Raw,Masters 61-67,,110,,,,,,,,,,,,,,,187.42,187.42,D
1,Willard Crossen Jr,M,WA,,,Single-ply,Masters 61-67,,117.5,,,,,,,,,,,,,,,244.94,244.94,D
1,Ted Stewart,M,WY,,,Raw,Masters 61-67,,140,,,,,,,,,,,,,,,207.38,207.38,D
DQ,James Mersberg,M,HI,,,Multi-ply,Masters 61-67,,140+,,,,,,,,,,,,,,,,,D
1,Joe Mickelson,M,WA,,,Raw,Masters 61-67,,140+,,,,,,,,,,,,,,,227.98,227.98,D
1,Frank Principati,M,AZ,,,Single-ply,Masters 68-74,,56,,,,,,,,,,,,,,,119.98,119.98,D
1,John Clay #2,M,CO,,,Multi-ply,Masters 68-74,,75,,,,,,,,,,,,,,,174.95,174.95,D
1,Gary Panttila Sr,M,AZ,,,Raw,Masters 68-74,,90,,,,,,,,,,,,,,,137.44,137.44,D
1,Tom Gonnering,M,AL,,,Raw,Masters 68-74,,110,,,,,,,,,,,,,,,29.94,29.94,D
1,Eddie Morgan #1,M,AR,,,Single-ply,Masters 68-74,,110,,,,,,,,,,,,,,,257.41,257.41,D
1,Peter Murphy,M,CA,,,Multi-ply,Masters 68-74,,110,,,,,,,,,,,,,,,219.99,219.99,D
1,Thomas Matlock,M,AZ,,,Raw,Masters 68-74,,117.5,,,,,,,,,,,,,,,164.97,164.97,D
1,James Christian #1,M,TX,,,Single-ply,Masters 75-79,,75,,,,,,,,,,,,,,,154.9,154.9,D
1,Robert Batko,M,MI,,,Raw,Masters 75-79,,82.5,,,,,,,,,,,,,,,189.92,189.92,D
1,Gary Flood,M,OK,,,Raw,Masters 75-79,,100,,,,,,,,,,,,,,147.42,144.92,144.92,D
2,Jerry Guiliano,M,CA,,,Raw,Masters 75-79,,100,,,,,,,,,,,,,,145.42,137.44,137.44,D
1,Ernie O'Hara,M,CO,,,Raw,Masters 80-84,,82.5,,,,,,,,,,,,,,,127.46,127.46,D
2,Greg Nieto,M,CA,,,Raw,Masters 80-84,,82.5,,,,,,,,,,,,,,122.47,119.98,119.98,D
1,Jamie Field,F,CA,,,Single-ply,Masters 40-46,,56,,,,,,,,,,,,,,,144.92,144.92,D
1,Melissa L.K. Wong Yuen,F,HI,,,Raw,Masters 40-46,,56,,,,,,,,,,,,,,95.39,92.4,92.4,D
1,Stephanie Rainey,F,OK,,,Raw,Masters 40-46,,67.5,,,,,,,,,,,,,,,107.37,107.37,D
1,Brandi Kary,F,CA,,,Single-ply,Masters 40-46,,75,,,,,,,,,,,,,,,147.42,147.42,D
1,Jennifer Sampson,F,MT,,,Raw,Masters 40-46,,75,,,,,,,,,,,,,,,82.42,82.42,D
1,Sophia Hussary,F,AZ,,,Raw,Masters 40-46,,82.5,,,,,,,,,,,,,,,199.9,199.9,D
1,Alisha Howard,F,WA,,,Single-ply,Masters 40-46,,90,,,,,,,,,,,,,,,220.49,220.49,D
1,Trisha Puou,F,HI,,,Single-ply,Masters 40-46,,90+,,,,,,,,,,,,,,,184.93,184.93,D
1,Trish Romano,F,AZ,,,Raw,Masters 40-46,,90+,,,,,,,,,,,,,,,152.41,152.41,D
1,Valesca Cristina Rocha,F,,Brazil,,Raw,Masters 47-53,,56,,,,,,,,,,,,,,,147.42,147.42,D
2,Amy Furman,F,CA,,,Raw,Masters 47-53,,56,,,,,,,,,,,,,,,84.91,84.91,D
DQ,Lori Barlow,F,CA,,,Raw,Masters 47-53,,67.5,,,,,,,,,,,,,,,,,D
1,Jeanne Nielsen,F,CA,,,Raw,Masters 47-53,,67.5,,,,,,,,,,,,,,,154.9,154.9,D
1,Dede Soekardi,F,CA,,,Single-ply,Masters 47-53,,67.5,,,,,,,,,,,,,,,147.42,147.42,D
2,Wendy Graack,F,AZ,,,Raw,Masters 47-53,,67.5,,,,,,,,,,,,,,,134.94,134.94,D
1,Maria Villegas-Hoppe,F,CA,,,Raw,Masters 47-53,,75,,,,,,,,,,,,,,,124.96,124.96,D
1,Alane Fife,F,NV,,,Raw,Masters 47-53,,82.5,,,,,,,,,,,,,,84.91,82.42,82.42,D
1,Mirtha Delatorre,F,CA,,,Multi-ply,Masters 47-53,,90,,,,,,,,,,,,,,164.97,154.9,154.9,D
1,Akondaye Fountain,F,TX,,,Raw,Masters 47-53,,90,,,,,,,,,,,,,,,172.46,172.46,D
2,Mesha Blackwell,F,IL,,,Raw,Masters 47-53,,90,,,,,,,,,,,,,,152.41,149.91,149.91,D
1,Martha Godinez-Shim,F,HI,,,Multi-ply,Masters 54-60,,56,,,,,,,,,,,,,,,122.47,122.47,D
1,Beverly Anolin,F,CA,,,Single-ply,Masters 54-60,,75,,,,,,,,,,,,,,181.44,174.95,174.95,D
1,Cindy Shockman,F,OR,,,Raw,Masters 54-60,,75,,,,,,,,,,,,,,202.39,197.9,197.9,D
2,Kathy Caraccioli,F,CA,,,Single-ply,Masters 54-60,,75,,,,,,,,,,,,,,,167.47,167.47,D
3,Josefina Jackson,F,TX,,,Single-ply,Masters 54-60,,75,,,,,,,,,,,,,,,119.98,119.98,D
1,Artemira Sobrinho,F,,Brazil,,Raw,Masters 54-60,,82.5,,,,,,,,,,,,,,,204.89,204.89,D
1,Terri Aiwohi,F,HI,,,Raw,Masters 54-60,,90,,,,,,,,,,,,,,,152.41,152.41,D
1,Ann Dorschel,F,WI,,,Raw,Masters 61-67,,44,,,,,,,,,,,,,,94.89,89.9,89.9,D
1,Betty Hansen,F,CA,,,Multi-ply,Masters 61-67,,56,,,,,,,,,,,,,,124.96,122.47,122.47,D
1,Marsha Goodman,F,AZ,,,Raw,Masters 61-67,,67.5,,,,,,,,,,,,,,,114.99,114.99,D
2,Laura Gonnering,F,AL,,,Raw,Masters 61-67,,67.5,,,,,,,,,,,,,,,89.9,89.9,D
1,Peach Presley,F,CA,,,Single-ply,Masters 61-67,,75,,,,,,,,,,,,,,,159.89,159.89,D
1,Sue Vaterlaus,F,CA,,,Raw,Masters 61-67,,90,,,,,,,,,,,,,,,64.95,64.95,D
1,Rebecca Ralston,F,CO,,,Raw,Masters 68-74,,56,,,,,,,,,,,,,,,99.88,99.88,D
1,Judith Petray,F,CA,,,Single-ply,Masters 75-79,,75,,,,,,,,,,,,,,,137.44,137.44,D
1,Marlene Wexler,F,MN,,,Raw,Masters 75-79,,90,,,,,,,,,,,,,,,122.47,122.47,D
1,Carrie Reese,F,CA,,,Raw,Masters 80-84,,56,,,,,,,,,,,,,,102.38,97.39,97.39,D
1,Landon Sakai,M,HI,,,Single-ply,Open,,52,,,,,,,,,,,,,,,190.92,190.92,D
1,Hobeen Lee,M,TN,,,Raw,Open,,60,,,,,,,,,,,,,,174.95,169.96,169.96,D
1,Oscar Martinez,M,WA,,,Raw,Open,,67.5,,,,,,,,,,,,,,222.49,220.99,220.99,D
2,Deron Agaran,M,HI,,,Raw,Open,,67.5,,,,,,,,,,,,,,182.43,177.45,177.45,D
3,James Needles,M,WA,,,Raw,Open,,67.5,,,,,,,,,,,,,,,164.97,164.97,D
1,Mathew Carpentier,M,AZ,,,Raw,Open,,90,,,,,,,,,,,,,,,194.91,194.91,D
1,Kaneala Ablao,M,HI,,,Single-ply,Open,,100,,,,,,,,,,,,,,,277.46,277.46,D
1,Tim Sparkes,M,AZ,,,Raw,Open,,100,,,,,,,,,,,,,,,304.9,304.9,D
2,Devin-Jackson Kawewehi,M,HI,,,Raw,Open,,100,,,,,,,,,,,,,,,272.47,272.47,D
2,Jack Rogers,M,OK,,,Single-ply,Open,,100,,,,,,,,,,,,,,,237.46,237.46,D
3,Jacob Hafen,M,NV,,,Raw,Open,,100,,,,,,,,,,,,,,,242.45,242.45,D
DQ,Willard Crossen Jr,M,WA,,,Single-ply,Open,,117.5,,,,,,,,,,,,,,,,,D
1,Nick Massey,M,CA,,,Multi-ply,Open,,117.5,,,,,,,,,,,,,,,252.92,252.92,D
1,Brandon Janosco,M,AZ,,,Raw,Open,,125,,,,,,,,,,,,,,,299.92,299.92,D
2,Chaz Adams,M,HI,,,Raw,Open,,125,,,,,,,,,,,,,,,264.9,264.9,D
3,Billy Caughey,M,UT,,,Raw,Open,,125,,,,,,,,,,,,,,,229.97,229.97,D
1,Tim Boyce,M,OK,,,Single-ply,Open,,140,,,,,,,,,,,,,,,349.95,349.95,D
1,Brent Mikesell,M,WA,,,Raw,Open,,140,,,,,,,,,,,,,,,272.47,272.47,D
1,River Newman,M,MT,,,Multi-ply,Open,,140,,,,,,,,,,,,,,,242.45,242.45,D
2,Jacob Wolford,M,AR,,,Raw,Open,,140,,,,,,,,,,,,,,,189.92,189.92,D
1,Thomas Guiney,M,OK,,,Multi-ply,Open,,140+,,,,,,,,,,,,,,,257.41,257.41,D
1,Johnathan Moore,M,FL,,,Raw,Open,,140+,,,,,,,,,,,,,,,382.47,382.47,D
1,Amy Furman,F,CA,,,Raw,Open,,56,,,,,,,,,,,,,,,84.91,84.91,D
1,Martha Godinez-Shim,F,HI,,,Multi-ply,Open,,56,,,,,,,,,,,,,,,122.47,122.47,D
1,April Hamon,F,TX,,,Single-ply,Open,,56,,,,,,,,,,,,,,,157.4,157.4,D
2,Betty Hansen,F,CA,,,Multi-ply,Open,,56,,,,,,,,,,,,,,124.96,122.47,122.47,D
2,Valesca Cristina Rocha,F,,Brazil,,Single-ply,Open,,56,,,,,,,,,,,,,,,147.42,147.42,D
1,Cristal Cabral,F,TX,,,Single-ply,Open,,67.5,,,,,,,,,,,,,,,184.93,184.93,D
1,Alyssa Turose,F,AZ,,,Raw,Open,,67.5,,,,,,,,,,,,,,,184.93,184.93,D
2,Jeanne Nielsen,F,CA,,,Raw,Open,,67.5,,,,,,,,,,,,,,,154.9,154.9,D
3,Tricia Downing,F,AZ,,,Raw,Open,,67.5,,,,,,,,,,,,,,,152.41,152.41,D
1,Cindy Shockman,F,OR,,,Raw,Open,,75,,,,,,,,,,,,,,202.39,197.9,197.9,D
1,Janesa Yadao,F,HI,,,Single-ply,Open,,75,,,,,,,,,,,,,,197.4,192.91,192.91,D
2,Peach Presley,F,CA,,,Single-ply,Open,,75,,,,,,,,,,,,,,,159.89,159.89,D
2,Katie Redfield,F,MT,,,Raw,Open,,75,,,,,,,,,,,,,,,129.95,129.95,D
1,Makaiwa Kanui,F,HI,,,Raw,Open,,82.5,,,,,,,,,,,,,,167.47,165.47,165.47,D
1,Kehaulani Richardson,F,NV,,,Single-ply,Open,,82.5,,,,,,,,,,,,,,212.37,207.38,207.38,D
2,Natalie McChesney,F,CA,,,Raw,Open,,82.5,,,,,,,,,,,,,,,110,110,D
2,Victoria Woods,F,CA,,,Single-ply,Open,,82.5,,,,,,,,,,,,,,,164.97,164.97,D
1,Natalie Caughey,F,UT,,,Single-ply,Open,,90,,,,,,,,,,,,,,,152.41,152.41,D
1,Mirtha Delatorre,F,CA,,,Multi-ply,Open,,90,,,,,,,,,,,,,,164.97,154.9,154.9,D
1,Lauwa'e Combis,F,HI,,,Raw,Open,,100,,,,,,,,,,,,,,,162.39,162.39,D
1,Caylen Gapusan,F,WA,,,Multi-ply,Open,,100,,,,,,,,,,,,,,147.42,127.46,127.46,D
1,Meesta Davis,F,AZ,,,Raw,Open,,90+,,,,,,,,,,,,,,,192.41,192.41,D
1,Trisha Puou,F,HI,,,Single-ply,Open,,90+,,,,,,,,,,,,,,,184.93,184.93,D
2,Marquita Snow-Whiten,F,IL,,,Raw,Open,,90+,,,,,,,,,,,,,,189.92,182.43,182.43,D
1,Roberto Rios,M,TX,,,Raw,Special Olympian,,82.5,,,,,,,,,,,,,,87.41,82.42,82.42,D
1,Durrell Favor,M,AZ,,,Raw,Submasters 33-39,,82.5,,,,,,,,,,,,,,,219.99,219.99,D
1,Nathan Phipps,M,AZ,,,Raw,Submasters 33-39,,90,,,,,,,,,,,,,,,194.91,194.91,D
1,Philip Rainey,M,OK,,,Raw,Submasters 33-39,,100,,,,,,,,,,,,,,,234.96,234.96,D
1,Brent Gapusan,M,WA,,,Multi-ply,Submasters 33-39,,110,,,,,,,,,,,,,,,230.47,230.47,D
1,Brandon Janosco,M,AZ,,,Raw,Submasters 33-39,,125,,,,,,,,,,,,,,,299.92,299.92,D
2,Billy Caughey,M,UT,,,Raw,Submasters 33-39,,125,,,,,,,,,,,,,,,229.97,229.97,D
1,Gary Panttila,M,AZ,,,Multi-ply,Submasters 33-39,,140,,,,,,,,,,,,,,,279.96,279.96,D
2,River Newman,M,MT,,,Multi-ply,Submasters 33-39,,140,,,,,,,,,,,,,,,242.45,242.45,D
1,April Hamon,F,TX,,,Single-ply,Submasters 33-39,,56,,,,,,,,,,,,,,,139.93,139.93,D
1,Michele Dodd,F,AZ,,,Raw,Submasters 33-39,,67.5,,,,,,,,,,,,,,,152.41,152.41,D
2,Amber Salvador,F,HI,,,Raw,Submasters 33-39,,67.5,,,,,,,,,,,,,,,139.93,139.93,D
1,Marisa Boyns,F,CA,,,Single-ply,Submasters 33-39,,75,,,,,,,,,,,,,,,164.97,164.97,D
1,Elisabeth Fruits,F,IN,,,Raw,Submasters 33-39,,75,,,,,,,,,,,,,,,134.94,134.94,D
1,Teresa Thompson,F,ID,,,Raw,Submasters 33-39,,90,,,,,,,,,,,,,,175.45,164.97,164.97,D
1,Caylen Gapusan,F,WA,,,Multi-ply,Submasters 33-39,,100,,,,,,,,,,,,,,147.42,134.94,134.94,D
1,Meesta Davis,F,AZ,,,Raw,Submasters 33-39,,90+,,,,,,,,,,,,,,,192.41,192.41,D
2,Marquita Snow-Whiten,F,IL,,,Raw,Submasters 33-39,,90+,,,,,,,,,,,,,,189.92,182.43,182.43,D
3,Carly Grennor,F,FL,,,Raw,Submasters 33-39,,90+,,,,,,,,,,,,,,,139.93,139.93,D
1,Kehaulani Richardson,F,NV,,,Single-ply,Submasters 33-39,,82.5,,,,,,,,,,,,,,,207.38,207.38,D
1,James Pritchett,M,AZ,,,Raw,Teen 12-13,,90,,,,,,,,,,,,,,,124.96,124.96,D
1,Chayden Bertelmann,M,HI,,,Raw,Teen 14-15,,60,,,,,,,,,,,,,,,159.89,159.89,D
1,Cody Jones,M,HI,,,Raw,Teen 14-15,,67.5,,,,,,,,,,,,,,,182.43,182.43,D
2,Talan Pichler,M,WI,,,Raw,Teen 14-15,,67.5,,,,,,,,,,,,,,,179.94,179.94,D
1,David Decanini #1,M,TX,,,Raw,Teen 14-15,,117.5,,,,,,,,,,,,,,149.91,142.43,142.43,D
1,Ryan Boren,M,AZ,,,Raw,Teen 14-15,,125,,,,,,,,,,,,,,,204.89,204.89,D
1,Jacob Solis,M,TX,,,Single-ply,Teen 16-17,,56,,,,,,,,,,,,,,,157.4,157.4,D
1,Ramiro Yanez III,M,TX,,,Raw,Teen 16-17,,75,,,,,,,,,,,,,,,240.45,240.45,D
1,Diego Trevino,M,TX,,,Raw,Teen 16-17,,82.5,,,,,,,,,,,,,,,204.89,204.89,D
2,Wyatt Cavanaugh,M,OK,,,Raw,Teen 16-17,,82.5,,,,,,,,,,,,,,,172.46,172.46,D
1,Anthony Del Angel,M,TX,,,Raw,Teen 16-17,,90,,,,,,,,,,,,,,,217.5,217.5,D
1,Trevor Baune,M,ID,,,Raw,Teen 16-17,,117.5,,,,,,,,,,,,,,,299.92,299.92,D
1,Justin Ralston,M,AZ,,,Raw,Teen 16-17,,125,,,,,,,,,,,,,,197.4,189.92,189.92,D
1,Kilihune Kanda,M,HI,,,Raw,Teen 16-17,,140,,,,,,,,,,,,,,,234.96,234.96,D
1,Nicholas Furman,M,CA,,,Raw,Teen 18-19,,75,,,,,,,,,,,,,,,107.37,107.37,D
1,David Soboyejo,M,AZ,,,Raw,Teen 18-19,,90,,,,,,,,,,,,,,,249.93,249.93,D
1,Nicholas Anderson #7,M,AZ,,,Raw,Teen 18-19,,117.5,,,,,,,,,,,,,,,187.42,187.42,D
1,Joe Veith,M,MI,,,Raw,Teen 18-19,,140+,,,,,,,,,,,,,,254.92,244.94,244.94,D
1,Carys Urasaki,F,HI,,,Raw,Teen 14-15,,52,,,,,,,,,,,,,,,99.88,99.88,D
1,Laila Jackson,F,TX,,,Single-ply,Teen 14-15,,56,,,,,,,,,,,,,,,110,110,D
1,Piper Maddox,F,TX,,,Raw,Teen 14-15,,82.5,,,,,,,,,,,,,,,106.37,106.37,D
1,Trulayna Ballo-Saladino,F,HI,,,Raw,Teen 16-17,,52,,,,,,,,,,,,,,,124.96,124.96,D
1,Megan Carpenter,F,MT,,,Raw,Teen 16-17,,60,,,,,,,,,,,,,,,124.96,124.96,D
1,Hoolai Paakonia,F,HI,,,Raw,Teen 16-17,,67.5,,,,,,,,,,,,,,,127.46,127.46,D
1,Lauren Needles,F,CA,,,Raw,Teen 16-17,,82.5,,,,,,,,,,,,,,142.43,137.44,137.44,D
1,Renee Miller,F,MD,,,Raw,Teen 18-19,,60,,,,,,,,,,,,,,129.95,119.98,119.98,D
1,Kassandra Mendiola,F,TX,,,Raw,Teen 18-19,,67.5,,,,,,,,,,,,,,,159.89,159.89,D
1,Kate Oebker,F,AZ,,,Raw,Teen 18-19,,75,,,,,,,,,,,,,,,104.87,104.87,D
DQ,Wyatt Cavanaugh,M,OK,,,Raw,Class 1,,82.5,,,,,,,,,,,,,,,,,B
1,Christian Novelo,M,CA,,,Raw,Class 1,,82.5,,,,,,,,,,137.44,,,,,,137.44,B
1,Bryan Vandiver,M,OK,,,Single-ply,Class 1,,90,,,,,,,,,,142.43,,,,,,142.43,B
1,Cody Williams,M,GA,,,Raw,Class 1,,90,,,,,,,,,,187.42,,,,,,187.42,B
2,Mathew Carpentier,M,AZ,,,Raw,Class 1,,90,,,,,,,,,,137.44,,,,,,137.44,B
DQ,Lyndell Corn,M,TN,,,Single-ply,Class 1,,100,,,,,,,,,,,,,,,,,B
1,Darwin Cavanaugh,M,OK,,,Single-ply,Class 1,,100,,,,,,,,,,129.95,,,,,,129.95,B
1,Erik Dye,M,OK,,,Multi-ply,Class 1,,100,,,,,,,,,,147.42,,,,,,147.42,B
1,Devin-Jackson Kawewehi,M,HI,,,Raw,Class 1,,100,,,,,,,,,,187.42,,,,,,187.42,B
2,Tyler Brown,M,OK,,,Raw,Class 1,,100,,,,,,,,,,167.47,,,,,,167.47,B
3,Lamar Lewis,M,AZ,,,Raw,Class 1,,100,,,,,,,,,,144.92,,,,,,144.92,B
1,Brent Gapusan,M,WA,,,Multi-ply,Class 1,,110,,,,,,,,,,217.5,,,,,,217.5,B
2,William Caughey,M,UT,,,Multi-ply,Class 1,,110,,,,,,,,,,79.92,,,,,,79.92,B
1,John Solleder,M,TX,,,Raw,Class 1,,125,,,,,,,,,,99.88,,,,,,99.88,B
1,Gary Panttila,M,AZ,,,Multi-ply,Class 1,,140,,,,,,,,,,199.9,,,,,,199.9,B
1,Alley Morris,F,AZ,,,Single-ply,Class 1,,52,,,,,,,,,,44.91,,,,,,44.91,B
1,Amber Salvador,F,HI,,,Raw,Class 1,,67.5,,,,,,,,,,49.9,,,,,,49.9,B
2,Diana Mc Allister,F,CA,,,Raw,Class 1,,67.5,,,,,,,,,,44.91,,,,,,44.91,B
1,Makaiwa Kanui,F,HI,,,Raw,Class 1,,82.5,,,,,,,,,77.93,74.93,,,,,,74.93,B
2,Asia Bell,F,AZ,,,Raw,Class 1,,82.5,,,,,,,,,72.44,69.94,,,,,,69.94,B
1,Mesha Blackwell,F,IL,,,Raw,Class 1,,90,,,,,,,,,,79.92,,,,,,79.92,B
1,Natalie Caughey,F,UT,,,Single-ply,Class 1,,90,,,,,,,,,,79.92,,,,,,79.92,B
2,Catherine Mc Allister,F,CA,,,Raw,Class 1,,90,,,,,,,,,,44.91,,,,,,44.91,B
1,Tamara Perry,F,HI,,,Raw,Class 1,,100,,,,,,,,,,74.93,,,,,,74.93,B
1,Scott Rickford,M,MN,,,Raw,Disabled 1 40-59,,82.5,,,,,,,,,,127.46,,,,,,127.46,B
1,Steve Peña #1,M,CA,,,Raw,Disabled 1 40-59,,110,,,,,,,,,,129.95,,,,,,129.95,B
1,Nin Beseda,M,WA,,,Raw,Disabled 1 60,,90,,,,,,,,,,114.99,,,,,,114.99,B
1,Ed Marshall,M,AZ,,,Raw,Disabled 1 60,,82.5,,,,,,,,,69.94,64.95,,,,,,64.95,B
1,Mac McClatchey,M,WI,,,Raw,Disabled 1 60,,117.5,,,,,,,,,,70.44,,,,,,70.44,B
1,Roberto Rios,M,TX,,,Raw,Disabled 2 20-39,,82.5,,,,,,,,,67.45,62.46,,,,,,62.46,B
1,Daniel Randall III,M,IL,,,Raw,Disabled 2 20-39,,100,,,,,,,,,74.93,69.94,,,,,,69.94,B
1,Thomas Sybouts,M,AZ,,,Raw,Disabled 2 60,,100,,,,,,,,,,124.96,,,,,,124.96,B
1,Michael Clason,M,OR,,,Raw,Disabled 2 60,,110,,,,,,,,,97.39,89.9,,,,,,89.9,B
1,Robert Jackson,M,TX,,,Raw,Disabled 2 60,,125,,,,,,,,,,107.37,,,,,,107.37,B
1,Dot Sosnicki,F,AZ,,,Raw,Disabled 2 40-59,,90+,,,,,,,,,,77.43,,,,,,77.43,B
1,Marlene Wexler,F,MN,,,Raw,Disabled 2 60,,90,,,,,,,,,,42.41,,,,,,42.41,B
1,Landon Sakai,M,HI,,,Single-ply,Elite Open,,52,,,,,,,,,,132.45,,,,,,132.45,B
DQ,Greg Powell,M,TX,,,Single-ply,Elite Open,,110,,,,,,,,,,,,,,,,,B
1,Eljay Gacosta,M,CA,,,Raw,Juniors 20-25,,67.5,,,,,,,,,114.99,110,,,,,,110,B
1,Jordan Rogers,M,OK,,,Raw,Juniors 20-25,,75,,,,,,,,,,110,,,,,,110,B
1,Michael Berrian,M,CO,,,Raw,Juniors 20-25,,100,,,,,,,,,,162.39,,,,,,162.39,B
2,Joedy Campos,M,AZ,,,Raw,Juniors 20-25,,100,,,,,,,,,,110,,,,,,110,B
3,Davin Garcia,M,AZ,,,Raw,Juniors 20-25,,100,,,,,,,,,,89.9,,,,,,89.9,B
1,Lorenzo McGurgan,M,AZ,,,Raw,Juniors 20-25,,110,,,,,,,,,,142.43,,,,,,142.43,B
1,Anthony Woodall,M,GA,,,Raw,Juniors 20-25,,117.5,,,,,,,,,,209.88,,,,,,209.88,B
2,Ethan Vavages,M,AZ,,,Raw,Juniors 20-25,,117.5,,,,,,,,,119.98,114.99,,,,,,114.99,B
1,Nikolai White,M,AZ,,,Single-ply,Juniors 20-25,,140,,,,,,,,,215.41,204.89,,,,,,204.89,B
1,Darrian Justin,M,AZ,,,Raw,Juniors 20-25,,140+,,,,,,,,,,147.42,,,,,,147.42,B
1,Vanessa Furman,F,CA,,,Raw,Juniors 20-25,,48,,,,,,,,,,37.42,,,,,,37.42,B
1,Pamela Arce,F,TX,,,Single-ply,Juniors 20-25,,67.5,,,,,,,,,97.39,94.89,,,,,,94.89,B
1,Alexandria McCarthy,F,CA,,,Raw,Juniors 20-25,,67.5,,,,,,,,,,62.46,,,,,,62.46,B
1,Crystal Hernandez,F,TX,,,Raw,Juniors 20-25,,90+,,,,,,,,,,84.91,,,,,,84.91,B
1,Chad Bertelmann,M,HI,,,Single-ply,Law-Fire 40-47,,100,,,,,,,,,,282.45,,,,,,282.45,B
1,Freddy Crosby,M,IL,,,Single-ply,Law-Fire 40-47,,110,,,,,,,,,,294.93,,,,,,294.93,B
1,Kevin Sisk,M,AZ,,,Raw,Law-Fire 40-47,,125,,,,,,,,,,172.46,,,,,,172.46,B
DQ,Micah Coleman,M,IL,,,Raw,Law-Fire 40-47,,140,,,,,,,,,,,,,,,,,B
1,Jamie Field,F,CA,,,Single-ply,Law-Fire 40-47,,56,,,,,,,,,,99.88,,,,,,99.88,B
1,Joelle McQuay,F,UT,,,Raw,Law-Fire 40-47,,60,,,,,,,,,,44.91,,,,,,44.91,B
1,Tricia Downing,F,AZ,,,Raw,Law-Fire 40-47,,67.5,,,,,,,,,,84.91,,,,,,84.91,B
1,Dana Crosby,F,IL,,,Raw,Law-Fire 40-47,,100,,,,,,,,,,77.93,,,,,,77.93,B
1,Jason Smith #1,M,OK,,,Raw,Law-Fire 48-55,,90,,,,,,,,,,159.89,,,,,,159.89,B
DQ,Bill Splawn,M,WA,,,Raw,Law-Fire 48-55,,117.5,,,,,,,,,,,,,,,,,B
2,Monica Hagen,F,CA,,,Raw,Law-Fire 48-55,,82.5,,,,,,,,,,64.95,,,,,,64.95,B
1,Artemira Sobrinho,F,,Brazil,,Raw,Law-Fire 48-55,,82.5,,,,,,,,,,84.91,,,,,,84.91,B
1,Charles McFarland,M,OR,,,Multi-ply,Law-Fire 64+,,90,,,,,,,,,132.45,124.96,,,,,,124.96,B
1,Donald Bryant,M,WA,,,Raw,Law-Fire 64+,,117.5,,,,,,,,,,122.47,,,,,,122.47,B
1,Pam Carter,F,AZ,,,Raw,Law-Fire 64+,,82.5,,,,,,,,,,55.47,,,,,,55.47,B
1,Freddy Crosby,M,IL,,,Single-ply,Law-Fire Open,,110,,,,,,,,,,294.93,,,,,,294.93,B
1,Kevin Sisk,M,AZ,,,Raw,Law-Fire Open,,125,,,,,,,,,,172.46,,,,,,172.46,B
DQ,Alisha Howard,F,WA,,,Single-ply,Law-Fire Open,,90,,,,,,,,,,,,,,,,,B
1,Dana Crosby,F,IL,,,Raw,Law-Fire Open,,100,,,,,,,,,,77.93,,,,,,77.93,B
1,Jason Yelle,M,NV,,,Raw,Law-Fire Submasters,,100,,,,,,,,,,172.46,,,,,,172.46,B
1,Ryland Arbuckle,M,CA,,,Raw,Law-Fire Submasters,,110,,,,,,,,,,157.4,,,,,,157.4,B
1,Trinity Parr,F,CA,,,Raw,Law-Fire Submasters,,60,,,,,,,,,,49.9,,,,,,49.9,B
1,James Goeppinger,M,TX,,,Raw,Masters 40-46,,75,,,,,,,,,,129.95,,,,,,129.95,B
1,Chad Bertelmann,M,HI,,,Single-ply,Masters 40-46,,100,,,,,,,,,,282.45,,,,,,282.45,B
1,Lamar Lewis,M,AZ,,,Raw,Masters 40-46,,100,,,,,,,,,,144.92,,,,,,144.92,B
1,Malcolm Fling,M,IL,,,Raw,Masters 40-46,,110,,,,,,,,,138.44,137.44,,,,,,137.44,B
1,Donovan Ballo,M,HI,,,Raw,Masters 40-46,,117.5,,,,,,,,,,187.42,,,,,,187.42,B
2,Richard Kamoku,M,HI,,,Raw,Masters 40-46,,117.5,,,,,,,,,,157.4,,,,,,157.4,B
1,Willis Smith,M,TX,,,Single-ply,Masters 40-46,,125,,,,,,,,,,167.47,,,,,,167.47,B
1,Tim Boyce,M,OK,,,Single-ply,Masters 40-46,,140,,,,,,,,,,294.93,,,,,,294.93,B
DQ,Hiram Kaikaina III,M,HI,,,Single-ply,Masters 40-46,,140+,,,,,,,,,,,,,,,,,B
1,Darren Elisaga,M,HI,,,Single-ply,Masters 40-46,,140+,,,,,,,,,,347.45,,,,,,347.45,B
1,Oscar Martinez,M,WA,,,Raw,Masters 47-53,,67.5,,,,,,,,,,129.95,,,,,,129.95,B
1,Chris Balanga,M,CA,,,Single-ply,Masters 47-53,,75,,,,,,,,,,182.43,,,,,,182.43,B
1,David Smith,M,TX,,,Raw,Masters 47-53,,75,,,,,,,,,,154.9,,,,,,154.9,B
1,Anthony Wilson,M,AZ,,,Raw,Masters 47-53,,82.5,,,,,,,,,160.39,157.4,,,,,,157.4,B
2,Mike Stanchfield,M,MN,,,Raw,Masters 47-53,,82.5,,,,,,,,,,147.42,,,,,,147.42,B
3,Marchand Flemming,M,OK,,,Raw,Masters 47-53,,82.5,,,,,,,,,,124.96,,,,,,124.96,B
1,Joey Murphy,M,GA,,,Single-ply,Masters 47-53,,90,,,,,,,,,,194.91,,,,,,194.91,B
1,Jason Smith #1,M,OK,,,Raw,Masters 47-53,,90,,,,,,,,,,159.89,,,,,,159.89,B
1,Darwin Cavanaugh,M,OK,,,Single-ply,Masters 47-53,,100,,,,,,,,,,129.95,,,,,,129.95,B
1,Nick Massey,M,CA,,,Multi-ply,Masters 47-53,,117.5,,,,,,,,,,230.47,,,,,,230.47,B
1,Deron Agaran,M,HI,,,Raw,Masters 54-60,,67.5,,,,,,,,,147.42,142.93,,,,,,142.93,B
2,James Needles,M,WA,,,Raw,Masters 54-60,,67.5,,,,,,,,,,79.92,,,,,,79.92,B
DQ,Tony Coduto,M,IL,,,Single-ply,Masters 54-60,,90,,,,,,,,,,,,,,,,,B
1,Bryan Vandiver,M,OK,,,Single-ply,Masters 54-60,,90,,,,,,,,,,142.43,,,,,,142.43,B
DQ,Lydell Corn,M,TN,,,Single-ply,Masters 54-60,,100,,,,,,,,,,,,,,,,,B
1,James Noblit,M,OR,,,Multi-ply,Masters 54-60,,100,,,,,,,,,,192.41,,,,,,192.41,B
1,Mark Webber,M,WA,,,Raw,Masters 54-60,,100,,,,,,,,,,129.95,,,,,,129.95,B
2,Erik Dye,M,OK,,,Multi-ply,Masters 54-60,,100,,,,,,,,,,147.42,,,,,,147.42,B
1,Kenneth Millrany,M,TN,,,Single-ply,Masters 54-60,,110,,,,,,,,,317.88,308.4,,,,,,308.4,B
1,Brian Taylor,M,UT,,,Raw,Masters 54-60,,110,,,,,,,,,,77.43,,,,,,77.43,B
1,John Solleder,M,TX,,,Raw,Masters 54-60,,125,,,,,,,,,,99.88,,,,,,99.88,B
DQ,Al Tanner,M,OK,,,Raw,Masters 54-60,,140+,,,,,,,,,,,,,,,,,B
1,Gary Shim,M,HI,,,Multi-ply,Masters 54-60,,140+,,,,,,,,,,282.45,,,,,,282.45,B
1,Chetram Mangra,M,NY,,,Single-ply,Masters 61-67,,60,,,,,,,,,,92.4,,,,,,92.4,B
1,David Constantineau,M,WI,,,Raw,Masters 61-67,,75,,,,,,,,,,77.43,,,,,,77.43,B
1,Richard Cirigliano,M,CA,,,Single-ply,Masters 61-67,,82.5,,,,,,,,,,107.37,,,,,,107.37,B
1,Bob Levering,M,CA,,,Raw,Masters 61-67,,90,,,,,,,,,,144.92,,,,,,144.92,B
1,Terry O'Neal,M,AZ,,,Raw,Masters 61-67,,100,,,,,,,,,,137.44,,,,,,137.44,B
2,James Sullivan,M,AZ,,,Raw,Masters 61-67,,100,,,,,,,,,,124.96,,,,,,124.96,B
3,Thomas Sybouts,M,AZ,,,Raw,Masters 61-67,,100,,,,,,,,,,124.96,,,,,,124.96,B
4,James Spainhower,M,AZ,,,Raw,Masters 61-67,,100,,,,,,,,,,114.99,,,,,,114.99,B
5,Gregory Olson,M,MN,,,Raw,Masters 61-67,,100,,,,,,,,,,102.38,,,,,,102.38,B
6,Gene Wenzel,M,OH,,,Raw,Masters 61-67,,100,,,,,,,,,,99.88,,,,,,99.88,B
1,William Caughey,M,UT,,,Multi-ply,Masters 61-67,,110,,,,,,,,,,79.92,,,,,,79.92,B
1,Wayne Sowers,M,ME,,,Raw,Masters 61-67,,110,,,,,,,,,,147.92,,,,,,147.92,B
1,Willard Crossen Jr,M,WA,,,Single-ply,Masters 61-67,,117.5,,,,,,,,,,247.43,,,,,,247.43,B
1,Forest Hofer,M,WA,,,Raw,Masters 61-67,,140,,,,,,,,,,210.88,,,,,,210.88,B
2,Ted Stewart,M,WY,,,Raw,Masters 61-67,,140,,,,,,,,,,104.87,,,,,,104.87,B
DQ,James Mersberg,M,HI,,,Multi-ply,Masters 61-67,,140+,,,,,,,,,,,,,,,,,B
1,Joe Mickelson,M,WA,,,Raw,Masters 61-67,,140+,,,,,,,,,157.4,152.41,,,,,,152.41,B
1,Bob Hill,M,OR,,,Raw,Masters 68-74,,82.5,,,,,,,,,,97.39,,,,,,97.39,B
1,Nin Beseda,M,WA,,,Raw,Masters 68-74,,90,,,,,,,,,,127.46,,,,,,127.46,B
1,Tom Gonnering,M,AL,,,Raw,Masters 68-74,,110,,,,,,,,,,19.96,,,,,,19.96,B
1,Joe Morales,M,AZ,,,Raw,Masters 68-74,,140,,,,,,,,,,147.42,,,,,,147.42,B
2,Tom Morgan,M,AR,,,Raw,Masters 68-74,,140,,,,,,,,,,132.45,,,,,,132.45,B
1,John Bretz,M,PA,,,Raw,Masters 75-79,,82.5,,,,,,,,,,97.39,,,,,,97.39,B
2,Robert Batko,M,MI,,,Raw,Masters 75-79,,82.5,,,,,,,,,77.93,77.43,,,,,,77.43,B
1,Jerry Guiliano,M,CA,,,Raw,Masters 75-79,,100,,,,,,,,,,108.36,,,,,,108.36,B
2,Gary Flood,M,OK,,,Raw,Masters 75-79,,100,,,,,,,,,,69.94,,,,,,69.94,B
DQ,Greg Nieto,M,CA,,,Raw,Masters 80-84,,82.5,,,,,,,,,,,,,,,,,B
1,William Prince,M,NV,,,Raw,Masters 80-84,,90,,,,,,,,,,92.4,,,,,,92.4,B
1,Jamie Field,F,CA,,,Single-ply,Masters 40-46,,56,,,,,,,,,,99.88,,,,,,99.88,B
1,Melissa L.K. Wong Yuen,F,HI,,,Raw,Masters 40-46,,56,,,,,,,,,,45.4,,,,,,45.4,B
1,Stacy Matsuyama-Sekioka,F,HI,,,Single-ply,Masters 40-46,,60,,,,,,,,,97.39,92.4,,,,,,92.4,B
1,Wrynna Arruda,F,HI,,,Raw,Masters 40-46,,75,,,,,,,,,,124.96,,,,,,124.96,B
1,Brandi Kary,F,CA,,,Single-ply,Masters 40-46,,75,,,,,,,,,,94.89,,,,,,94.89,B
2,Jennifer Sampson,F,MT,,,Raw,Masters 40-46,,75,,,,,,,,,,47.4,,,,,,47.4,B
1,Sophia Hussary,F,AZ,,,Raw,Masters 40-46,,82.5,,,,,,,,,,99.88,,,,,,99.88,B
DQ,Alisha Howard,F,WA,,,Single-ply,Masters 40-46,,90,,,,,,,,,,,,,,,,,B
1,Tamara Perry,F,HI,,,Raw,Masters 40-46,,100,,,,,,,,,,74.93,,,,,,74.93,B
1,Trisha Puou,F,HI,,,Single-ply,Masters 40-46,,90+,,,,,,,,,,137.44,,,,,,137.44,B
1,Trish Romano,F,AZ,,,Raw,Masters 40-46,,90+,,,,,,,,,,74.93,,,,,,74.93,B
1,Valesca Cristina Rocha,F,,Brazil,,Raw,Masters 47-53,,56,,,,,,,,,,62.46,,,,,,62.46,B
2,Amy Furman,F,CA,,,Raw,Masters 47-53,,56,,,,,,,,,,44.91,,,,,,44.91,B
1,Sharon Bertelmann,F,HI,,,Raw,Masters 47-53,,60,,,,,,,,,,55.47,,,,,,55.47,B
1,Jo Caldwell,F,AZ,,,Raw,Masters 47-53,,67.5,,,,,,,,,94.89,92.4,,,,,,92.4,B
1,Dede Soekardi,F,CA,,,Single-ply,Masters 47-53,,67.5,,,,,,,,,,102.38,,,,,,102.38,B
2,Jeanne Nielsen,F,CA,,,Raw,Masters 47-53,,67.5,,,,,,,,,,79.92,,,,,,79.92,B
1,Maria Villegas-Hoppe,F,CA,,,Raw,Masters 47-53,,75,,,,,,,,,,52.39,,,,,,52.39,B
1,Melissa Benson,F,CO,,,Raw,Masters 47-53,,82.5,,,,,,,,,,62.46,,,,,,62.46,B
2,Alane Fife,F,NV,,,Raw,Masters 47-53,,82.5,,,,,,,,,42.41,39.92,,,,,,39.92,B
1,Mirtha Delatorre,F,CA,,,Multi-ply,Masters 47-53,,90,,,,,,,,,,104.87,,,,,,104.87,B
1,Akondaye Fountain,F,TX,,,Raw,Masters 47-53,,90,,,,,,,,,,89.9,,,,,,89.9,B
2,Mesha Blackwell,F,IL,,,Raw,Masters 47-53,,90,,,,,,,,,,79.92,,,,,,79.92,B
1,Martha Godinez-Shim,F,HI,,,Multi-ply,Masters 54-60,,56,,,,,,,,,,75.43,,,,,,75.43,B
1,Beverly Anolin,F,CA,,,Single-ply,Masters 54-60,,75,,,,,,,,,,117.48,,,,,,117.48,B
1,Cindy Shockman,F,OR,,,Raw,Masters 54-60,,75,,,,,,,,,,129.95,,,,,,129.95,B
2,Josefina Jackson,F,TX,,,Single-ply,Masters 54-60,,75,,,,,,,,,,72.44,,,,,,72.44,B
3,Kathy Caraccioli,F,CA,,,Single-ply,Masters 54-60,,75,,,,,,,,,69.94,67.45,,,,,,67.45,B
1,Susan Case,F,HI,,,Multi-ply,Masters 54-60,,82.5,,,,,,,,,,84.91,,,,,,84.91,B
1,Artemira Sobrinho,F,,Brazil,,Raw,Masters 54-60,,82.5,,,,,,,,,,84.91,,,,,,84.91,B
1,Terri Aiwohi,F,HI,,,Raw,Masters 54-60,,90,,,,,,,,,85.41,84.91,,,,,,84.91,B
1,Dot Sosnicki,F,AZ,,,Raw,Masters 54-60,,90+,,,,,,,,,,77.43,,,,,,77.43,B
1,Betty Hansen,F,CA,,,Multi-ply,Masters 61-67,,56,,,,,,,,,79.92,77.43,,,,,,77.43,B
1,Laura Gonnering,F,AL,,,Raw,Masters 61-67,,67.5,,,,,,,,,,34.93,,,,,,34.93,B
1,Peach Presley,F,CA,,,Single-ply,Masters 61-67,,75,,,,,,,,,,99.88,,,,,,99.88,B
1,Sue Vaterlaus,F,CA,,,Raw,Masters 61-67,,90,,,,,,,,,,52.39,,,,,,52.39,B
1,Gloria Caughey,F,UT,,,Raw,Masters 61-67,,90+,,,,,,,,,72.44,64.95,,,,,,64.95,B
1,Rebecca Ralston,F,CO,,,Raw,Masters 68-74,,56,,,,,,,,,,42.41,,,,,,42.41,B
1,Pam Carter,F,AZ,,,Raw,Masters 68-74,,82.5,,,,,,,,,,55.47,,,,,,55.47,B
2,Jacqueline Fendler,F,MN,,,Raw,Masters 68-74,,82.5,,,,,,,,,,34.93,,,,,,34.93,B
1,Marlene Wexler,F,MN,,,Raw,Masters 75-79,,90,,,,,,,,,,42.41,,,,,,42.41,B
1,Carrie Reese,F,CA,,,Raw,Masters 80-84,,56,,,,,,,,,39.92,37.42,,,,,,37.42,B
1,Hobeen Lee,M,TN,,,Raw,Open,,60,,,,,,,,,144.92,142.43,,,,,,142.43,B
1,Deron Agaran,M,HI,,,Raw,Open,,67.5,,,,,,,,,147.42,142.93,,,,,,142.93,B
2,Oscar Martinez,M,WA,,,Raw,Open,,67.5,,,,,,,,,,129.95,,,,,,129.95,B
3,James Needles,M,WA,,,Raw,Open,,67.5,,,,,,,,,,79.92,,,,,,79.92,B
1,David Smith,M,TX,,,Raw,Open,,75,,,,,,,,,,154.9,,,,,,154.9,B
1,Matthew Carpentier,M,AZ,,,Raw,Open,,90,,,,,,,,,,137.44,,,,,,137.44,B
1,Zachary Jones #2,M,OK,,,Single-ply,Open,,90,,,,,,,,,,187.42,,,,,,187.42,B
1,Kaneala Ablao,M,HI,,,Raw,Open,,100,,,,,,,,,192.91,189.92,,,,,,189.92,B
2,Kaneala Ablao,M,HI,,,Raw,Open,,100,,,,,,,,,192.91,189.92,,,,,,189.92,B
1,Jack Rogers,M,OK,,,Single-ply,Open,,100,,,,,,,,,,207.38,,,,,,207.38,B
3,Devin-Jackson Kawewehi,M,HI,,,Raw,Open,,100,,,,,,,,,,187.42,,,,,,187.42,B
4,Jacob Hafen,M,NV,,,Raw,Open,,100,,,,,,,,,,132.45,,,,,,132.45,B
1,Kenneth Millrany,M,TN,,,Single-ply,Open,,110,,,,,,,,,317.88,308.4,,,,,,308.4,B
DQ,Willard Crossen Jr,M,WA,,,Single-ply,Open,,117.5,,,,,,,,,,,,,,,,,B
1,Isaac Manipon-Silva,M,HI,,,Raw,Open,,117.5,,,,,,,,,229.97,225.48,,,,,,225.48,B
1,Nick Massey,M,CA,,,Multi-ply,Open,,117.5,,,,,,,,,,230.47,,,,,,230.47,B
2,Anthony Woodall,M,GA,,,Raw,Open,,117.5,,,,,,,,,,209.88,,,,,,209.88,B
1,Chaz Adams,M,HI,,,Raw,Open,,125,,,,,,,,,,172.46,,,,,,172.46,B
2,Billy Caughey,M,UT,,,Raw,Open,,125,,,,,,,,,,127.46,,,,,,127.46,B
1,Tim Boyce,M,OK,,,Single-ply,Open,,140,,,,,,,,,,294.93,,,,,,294.93,B
1,Forest Hofer,M,WA,,,Raw,Open,,140,,,,,,,,,,210.88,,,,,,210.88,B
1,River Newman,M,MT,,,Multi-ply,Open,,140,,,,,,,,,,282.45,,,,,,282.45,B
2,Jacob Wolford,M,AR,,,Raw,Open,,140,,,,,,,,,,122.47,,,,,,122.47,B
DQ,Hiram Kaikaina III,M,HI,,,Single-ply,Open,,140+,,,,,,,,,,,,,,,,,B
DQ,James Mersberg,M,HI,,,Multi-ply,Open,,140+,,,,,,,,,,,,,,,,,B
1,Darren Elisaga,M,HI,,,Single-ply,Open,,140+,,,,,,,,,,347.45,,,,,,347.45,B
1,Johnathan Moore,M,FL,,,Raw,Open,,140+,,,,,,,,,199.9,194.91,,,,,,194.91,B
1,Gary Shim,M,HI,,,Multi-ply,Open,,140+,,,,,,,,,,282.45,,,,,,282.45,B
1,April Hamon,F,TX,,,Single-ply,Open,,56,,,,,,,,,,72.44,,,,,,72.44,B
1,Betty Hansen,F,CA,,,Multi-ply,Open,,56,,,,,,,,,79.92,77.43,,,,,,77.43,B
1,Valesca Cristina Rocha,F,,Brazil,,Raw,Open,,56,,,,,,,,,,62.46,,,,,,62.46,B
2,Amy Furman,F,CA,,,Raw,Open,,56,,,,,,,,,,44.91,,,,,,44.91,B
2,Martha Godinez-Shim,F,HI,,,Multi-ply,Open,,56,,,,,,,,,,75.43,,,,,,75.43,B
1,Stacy Matsuyama-Sekioka,F,HI,,,Single-ply,Open,,60,,,,,,,,,97.39,92.4,,,,,,92.4,B
1,Cristal Cabral,F,TX,,,Single-ply,Open,,67.5,,,,,,,,,,102.38,,,,,,102.38,B
1,Jo Caldwell,F,AZ,,,Raw,Open,,67.5,,,,,,,,,94.89,92.4,,,,,,92.4,B
2,Tricia Downing,F,AZ,,,Raw,Open,,67.5,,,,,,,,,,84.91,,,,,,84.91,B
3,Jeanne Nielsen,F,CA,,,Raw,Open,,67.5,,,,,,,,,,79.92,,,,,,79.92,B
1,Cindy Shockman,F,OR,,,Raw,Open,,75,,,,,,,,,,129.95,,,,,,129.95,B
1,Janesa Yadao,F,HI,,,Single-ply,Open,,75,,,,,,,,,,112.49,,,,,,112.49,B
2,Wrynna Arruda,F,HI,,,Raw,Open,,75,,,,,,,,,,124.96,,,,,,124.96,B
2,Peach Presley,F,CA,,,Single-ply,Open,,75,,,,,,,,,,99.88,,,,,,99.88,B
3,Katie Redfield,F,MT,,,Raw,Open,,75,,,,,,,,,,69.94,,,,,,69.94,B
1,Makaiwa Kanui,F,HI,,,Raw,Open,,82.5,,,,,,,,,,74.93,,,,,,74.93,B
2,Natalie McChesney,F,CA,,,Raw,Open,,82.5,,,,,,,,,,62.46,,,,,,62.46,B
1,Natalie Caughey,F,UT,,,Single-ply,Open,,90,,,,,,,,,,79.92,,,,,,79.92,B
1,Mirtha Delatorre,F,CA,,,Multi-ply,Open,,90,,,,,,,,,,104.87,,,,,,104.87,B
1,Caylen Gapusan,F,WA,,,Multi-ply,Open,,100,,,,,,,,,,104.87,,,,,,104.87,B
1,Trisha Puou,F,HI,,,Single-ply,Open,,90+,,,,,,,,,,137.44,,,,,,137.44,B
1,Marquita Snow-Whiten,F,IL,,,Raw,Open,,90+,,,,,,,,,,104.87,,,,,,104.87,B
2,Meesta Davis,F,AZ,,,Raw,Open,,90+,,,,,,,,,,82.42,,,,,,82.42,B
1,Roberto Rios,M,TX,,,Raw,Special Olympian,,82.5,,,,,,,,,67.45,62.46,,,,,,62.46,B
1,Durrell Favor,M,AZ,,,Raw,Submasters 33-39,,82.5,,,,,,,,,,129.95,,,,,,129.95,B
1,Nathan Phipps,M,AZ,,,Raw,Submasters 33-39,,90,,,,,,,,,142.43,139.93,,,,,,139.93,B
1,Brent Gapusan,M,WA,,,Multi-ply,Submasters 33-39,,110,,,,,,,,,,217.5,,,,,,217.5,B
1,Isaac Manipon-Silva,M,HI,,,Raw,Submasters 33-39,,117.5,,,,,,,,,229.97,225.48,,,,,,225.48,B
1,Billy Caughey,M,UT,,,Raw,Submasters 33-39,,125,,,,,,,,,,127.46,,,,,,127.46,B
1,River Newman,M,MT,,,Multi-ply,Submasters 33-39,,140,,,,,,,,,,282.45,,,,,,282.45,B
2,Gary Panttila,M,AZ,,,Multi-ply,Submasters 33-39,,140,,,,,,,,,,199.9,,,,,,199.9,B
1,April Hamon,F,TX,,,Single-ply,Submasters 33-39,,56,,,,,,,,,,72.44,,,,,,72.44,B
1,Amber Salvador,F,HI,,,Raw,Submasters 33-39,,67.5,,,,,,,,,,49.9,,,,,,49.9,B
1,Marisa Boyns,F,CA,,,Single-ply,Submasters 33-39,,75,,,,,,,,,,92.4,,,,,,92.4,B
1,Teresa Thompson,F,ID,,,Raw,Submasters 33-39,,90,,,,,,,,,82.42,79.92,,,,,,79.92,B
1,Caylen Gapusan,F,WA,,,Multi-ply,Submasters 33-39,,100,,,,,,,,,,104.87,,,,,,104.87,B
1,Marquita Snow-Whiten,F,IL,,,Raw,Submasters 33-39,,90+,,,,,,,,,,104.87,,,,,,104.87,B
2,Meesta Davis,F,AZ,,,Raw,Submasters 33-39,,90+,,,,,,,,,,82.42,,,,,,82.42,B
3,Carly Grennor,F,FL,,,Raw,Submasters 33-39,,90+,,,,,,,,,,62.46,,,,,,62.46,B
1,James Pritchett,M,AZ,,,Raw,Teen 12-13,,90,,,,,,,,,,47.4,,,,,,47.4,B
1,Chayden Bertelmann,M,HI,,,Raw,Teen 14-15,,60,,,,,,,,,,82.42,,,,,,82.42,B
1,Talan Pichler,M,WI,,,Raw,Teen 14-15,,67.5,,,,,,,,,,102.38,,,,,,102.38,B
2,Cody Jones,M,HI,,,Raw,Teen 14-15,,67.5,,,,,,,,,,67.45,,,,,,67.45,B
1,David Decanini #1,M,TX,,,Raw,Teen 14-15,,117.5,,,,,,,,,,69.94,,,,,,69.94,B
1,Ryan Boren,M,AZ,,,Raw,Teen 14-15,,125,,,,,,,,,,89.9,,,,,,89.9,B
1,Ramiro Yanez III,M,TX,,,Raw,Teen 16-17,,75,,,,,,,,,,104.87,,,,,,104.87,B
DQ,Wyatt Cavanaugh,M,OK,,,Raw,Teen 16-17,,82.5,,,,,,,,,,,,,,,,,B
1,Diego Trevino,M,TX,,,Raw,Teen 16-17,,82.5,,,,,,,,,,102.38,,,,,,102.38,B
1,Anthony Del Angel,M,TX,,,Raw,Teen 16-17,,90,,,,,,,,,,112.49,,,,,,112.49,B
1,Trevor Baune,M,ID,,,Raw,Teen 16-17,,117.5,,,,,,,,,144.92,137.44,,,,,,137.44,B
1,Justin Ralston,M,AZ,,,Raw,Teen 16-17,,125,,,,,,,,,,110,,,,,,110,B
1,Kilihune Kanda,M,HI,,,Raw,Teen 16-17,,140,,,,,,,,,,129.95,,,,,,129.95,B
DQ,David Soboyejo,M,AZ,,,Raw,Teen 18-19,,90,,,,,,,,,,,,,,,,,B
1,Nicholas Anderson #7,M,AZ,,,Raw,Teen 18-19,,117.5,,,,,,,,,,87.41,,,,,,87.41,B
1,Joe Veith,M,MI,,,Raw,Teen 18-19,,140+,,,,,,,,,,149.91,,,,,,149.91,B
1,Piper Maddox,F,TX,,,Raw,Teen 14-15,,82.5,,,,,,,,,54.98,52.39,,,,,,52.39,B
1,Trulayna Ballo-Saladino,F,HI,,,Raw,Teen 16-17,,52,,,,,,,,,,49.9,,,,,,49.9,B
1,Megan Carpenter,F,MT,,,Raw,Teen 16-17,,60,,,,,,,,,62.46,59.96,,,,,,59.96,B
1,Lauren Needles,F,CA,,,Raw,Teen 16-17,,82.5,,,,,,,,,,62.46,,,,,,62.46,B
1,Kate Oebker,F,AZ,,,Raw,Teen 18-19,,75,,,,,,,,,,57.47,,,,,,57.47,B
DQ,Wyatt Cavanaugh,M,OK,,,Raw,Class 1,,82.5,,,,,,,,,,,,,,,,,BD
1,Christian Novelo,M,CA,,,Raw,Class 1,,82.5,,,,,,,,,,,,,,,,392.36,BD
1,Mathew Carpentier,M,AZ,,,Raw,Class 1,,90,,,,,,,,,,,,,,,,332.35,BD
1,Bryan Vandiver,M,OK,,,Single-ply,Class 1,,90,,,,,,,,,,,,,,,,324.86,BD
2,Tyler Brown,M,OK,,,Raw,Class 1,,100,,,,,,,,,,,,,,,,424.88,BD
1,Erik Dye,M,OK,,,Multi-ply,Class 1,,100,,,,,,,,,,,,,,,,387.37,BD
1,Devin-Jackson Kawewehi,M,HI,,,Raw,Class 1,,100,,,,,,,,,,,,,,,,459.9,BD
3,Lamar Lewis,M,AZ,,,Raw,Class 1,,100,,,,,,,,,,,,,,,,424.88,BD
2,William Caughey,M,UT,,,Multi-ply,Class 1,,110,,,,,,,,,,,,,,,,222.35,BD
1,Brent Gapusan,M,WA,,,Multi-ply,Class 1,,110,,,,,,,,,,,,,,,,447.97,BD
1,Gary Panttila,M,AZ,,,Multi-ply,Class 1,,140,,,,,,,,,,,,,,,,479.86,BD
1,Amber Salvador,F,HI,,,Raw,Class 1,,67.5,,,,,,,,,,,,,,,,189.83,BD
1,Makaiwa Kanui,F,HI,,,Raw,Class 1,,82.5,,,,,,,,,,,,,,,,240.4,BD
1,Mesha Blackwell,F,IL,,,Raw,Class 1,,90,,,,,,,,,,,,,,,,229.84,BD
1,Natalie Caughey,F,UT,,,Single-ply,Class 1,,90,,,,,,,,,,,,,,,,232.33,BD
1,Steve Peña #1,M,CA,,,Raw,Disabled 1 40-59,,110,,,,,,,,,,,,,,,,324.86,BD
1,Daniel Randall III,M,IL,,,Raw,Disabled 2 20-39,,100,,,,,,,,,,,,,,,,194.91,BD
1,Michael Clason,M,OR,,,Raw,Disabled 2 60,,110,,,,,,,,,,,,,,,,259.86,BD
1,Marlene Wexler,F,MN,,,Raw,Disabled 2 60,,90,,,,,,,,,,,,,,,,164.88,BD
1,Tyler Farmer,M,MT,,,Raw,Juniors 20-25,,75,,,,,,,,,,,,,,,,297.28,BD
1,Michael Berrian,M,CO,,,Raw,Juniors 20-25,,100,,,,,,,,,,,,,,,,429.78,BD
2,Joedy Campos,M,AZ,,,Raw,Juniors 20-25,,100,,,,,,,,,,,,,,,,302.41,BD
3,Davin Garcia,M,AZ,,,Raw,Juniors 20-25,,100,,,,,,,,,,,,,,,,277.33,BD
2,Ethan Vavages,M,AZ,,,Raw,Juniors 20-25,,117.5,,,,,,,,,,,,,,,,334.98,BD
1,Anthony Woodall,M,GA,,,Raw,Juniors 20-25,,117.5,,,,,,,,,,,,,,,,467.29,BD
1,Nikolai White,M,AZ,,,Single-ply,Juniors 20-25,,140,,,,,,,,,,,,,,,,514.78,BD
1,Darrian Justin,M,AZ,,,Raw,Juniors 20-25,,140+,,,,,,,,,,,,,,,,384.87,BD
1,Chad Bertelmann,M,HI,,,Single-ply,Law-Fire 40-47,,100,,,,,,,,,,,,,,,,517.41,BD
1,Freddy Crosby,M,IL,,,Single-ply,Law-Fire 40-47,,110,,,,,,,,,,,,,,,,577.38,BD
1,Robert Schleder,M,AZ,,,Raw,Law-Fire 40-47,,117.5,,,,,,,,,,,,,,,,454.91,BD
1,Jamie Field,F,CA,,,Single-ply,Law-Fire 40-47,,56,,,,,,,,,,,,,,,,244.8,BD
1,Jason Smith #1,M,OK,,,Raw,Law-Fire 48-55,,90,,,,,,,,,,,,,,,,412.32,BD
1,Charles Farmer,M,MT,,,Multi-ply,Law-Fire 48-55,,100,,,,,,,,,,,,,,,,527.39,BD
DQ,Bill Splawn,M,WA,,,Raw,Law-Fire 48-55,,117.5,,,,,,,,,,,,,,,,,BD
2,Monica Hagen,F,CA,,,Raw,Law-Fire 48-55,,82.5,,,,,,,,,,,,,,,,197.4,BD
1,Artemira Sobrinho,F,,Brazil,,Raw,Law-Fire 48-55,,82.5,,,,,,,,,,,,,,,,289.8,BD
1,Dan Guches,M,OR,,,Raw,Law-Fire 56-63,,90,,,,,,,,,,,,,,,,347.45,BD
1,Charles McFarland,M,OR,,,Multi-ply,Law-Fire 64+,,90,,,,,,,,,,,,,,,,369.9,BD
1,Dan Guches,M,OR,,,Raw,Law-Fire Open,,90,,,,,,,,,,,,,,,,347.45,BD
1,Freddy Crosby,M,IL,,,Single-ply,Law-Fire Open,,110,,,,,,,,,,,,,,,,577.38,BD
1,Robert Schleder,M,AZ,,,Raw,Law-Fire Open,,117.5,,,,,,,,,,,,,,,,454.91,BD
DQ,Alisha Howard,F,WA,,,Single-ply,Law-Fire Open,,90,,,,,,,,,,,,,,,,,BD
1,Ryland Arbuckle,M,CA,,,Raw,Law-Fire Submasters,,110,,,,,,,,,,,,,,,,364.78,BD
1,James Goeppinger,M,TX,,,Raw,Masters 40-46,,75,,,,,,,,,,,,,,,,339.83,BD
1,Chad Bertelmann,M,HI,,,Single-ply,Masters 40-46,,100,,,,,,,,,,,,,,,,517.41,BD
1,Lamar Lewis,M,AZ,,,Raw,Masters 40-46,,100,,,,,,,,,,,,,,,,424.88,BD
1,Jason Dexter,M,IN,,,Raw,Masters 40-46,,110,,,,,,,,,,,,,,,,449.83,BD
1,Donovan Ballo,M,HI,,,Raw,Masters 40-46,,117.5,,,,,,,,,,,,,,,,437.35,BD
2,Richard Kamoku,M,HI,,,Raw,Masters 40-46,,117.5,,,,,,,,,,,,,,,,407.33,BD
1,Willis Smith,M,TX,,,Single-ply,Masters 40-46,,125,,,,,,,,,,,,,,,,432.36,BD
1,Tim Boyce,M,OK,,,Single-ply,Masters 40-46,,140,,,,,,,,,,,,,,,,644.87,BD
1,Oscar Martinez,M,WA,,,Raw,Masters 47-53,,67.5,,,,,,,,,,,,,,,,350.94,BD
1,Chris Balanga,M,CA,,,Single-ply,Masters 47-53,,75,,,,,,,,,,,,,,,,412.41,BD
2,Marchand Flemming,M,OK,,,Raw,Masters 47-53,,82.5,,,,,,,,,,,,,,,,352.44,BD
1,Mike Stanchfield,M,MN,,,Raw,Masters 47-53,,82.5,,,,,,,,,,,,,,,,364.92,BD
1,Jason Smith #1,M,OK,,,Raw,Masters 47-53,,90,,,,,,,,,,,,,,,,412.09,BD
1,Charles Farmer,M,MT,,,Multi-ply,Masters 47-53,,100,,,,,,,,,,,,,,,,527.39,BD
1,Mike Desrosiers,M,AZ,,,Raw,Masters 47-53,,110,,,,,,,,,,,,,,,,397.35,BD
1,Edwardo Elgart,M,,Argentina,,Multi-ply,Masters 47-53,,110,,,,,,,,,,,,,,,,504.85,BD
1,Nick Massey,M,CA,,,Multi-ply,Masters 47-53,,117.5,,,,,,,,,,,,,,,,483.39,BD
1,Deron Agaran,M,HI,,,Raw,Masters 54-60,,67.5,,,,,,,,,,,,,,,,320.37,BD
2,James Needles,M,WA,,,Raw,Masters 54-60,,67.5,,,,,,,,,,,,,,,,244.89,BD
1,Ron Garofalo,M,CO,,,Raw,Masters 54-60,,82.5,,,,,,,,,,,,,,,,427.37,BD
1,Bryan Vandiver,M,OK,,,Single-ply,Masters 54-60,,90,,,,,,,,,,,,,,,,324.86,BD
1,Thomas Burke,M,AZ,,,Raw,Masters 54-60,,100,,,,,,,,,,,,,,,,399.84,BD
DQ,Lydell Corn,M,TN,,,Single-ply,Masters 54-60,,100,,,,,,,,,,,,,,,,,BD
1,Erik Dye,M,OK,,,Multi-ply,Masters 54-60,,100,,,,,,,,,,,,,,,,387.37,BD
3,Robert Gottlieb,M,FL,,,Raw,Masters 54-60,,100,,,,,,,,,,,,,,,,269.84,BD
DQ,James Noblit,M,OR,,,Multi-ply,Masters 54-60,,100,,,,,,,,,,,,,,,,,BD
2,Mark Webber,M,WA,,,Raw,Masters 54-60,,100,,,,,,,,,,,,,,,,354.94,BD
1,Tom Pennella,M,WA,,,Single-ply,Masters 54-60,,125,,,,,,,,,,,,,,,,492.33,BD
1,David Constantineau,M,WI,,,Raw,Masters 61-67,,75,,,,,,,,,,,,,,,,264.85,BD
1,Richard Cirigliano,M,CA,,,Single-ply,Masters 61-67,,82.5,,,,,,,,,,,,,,,,312.25,BD
1,James Sullivan,M,AZ,,,Raw,Masters 61-67,,100,,,,,,,,,,,,,,,,354.94,BD
2,Gene Wenzel,M,OH,,,Raw,Masters 61-67,,100,,,,,,,,,,,,,,,,294.79,BD
1,William Caughey,M,UT,,,Multi-ply,Masters 61-67,,110,,,,,,,,,,,,,,,,222.35,BD
1,Wayne Sowers,M,ME,,,Raw,Masters 61-67,,110,,,,,,,,,,,,,,,,335.34,BD
1,Willard Crossen Jr,M,WA,,,Single-ply,Masters 61-67,,117.5,,,,,,,,,,,,,,,,492.37,BD
1,Ted Stewart,M,WY,,,Raw,Masters 61-67,,140,,,,,,,,,,,,,,,,312.25,BD
DQ,James Mersberg,M,HI,,,Multi-ply,Masters 61-67,,140+,,,,,,,,,,,,,,,,,BD
1,Joe Mickelson,M,WA,,,Raw,Masters 61-67,,140+,,,,,,,,,,,,,,,,380.38,BD
1,Tom Gonnering,M,AL,,,Raw,Masters 68-74,,110,,,,,,,,,,,,,,,,49.9,BD
1,Thomas Matlock,M,AZ,,,Raw,Masters 68-74,,117.5,,,,,,,,,,,,,,,,247.39,BD
1,Robert Batko,M,MI,,,Raw,Masters 75-79,,82.5,,,,,,,,,,,,,,,,267.35,BD
2,Gary Flood,M,OK,,,Raw,Masters 75-79,,100,,,,,,,,,,,,,,,,214.87,BD
1,Jerry Guiliano,M,CA,,,Raw,Masters 75-79,,100,,,,,,,,,,,,,,,,245.8,BD
DQ,Greg Nieto,M,CA,,,Raw,Masters 80-84,,82.5,,,,,,,,,,,,,,,,,BD
1,Ernie O'Hara,M,CO,,,Raw,Masters 80-84,,82.5,,,,,,,,,,,,,,,,184.93,BD
1,Jamie Field,F,CA,,,Single-ply,Masters 40-46,,56,,,,,,,,,,,,,,,,244.8,BD
1,Melissa L.K. Wong Yuen,F,HI,,,Raw,Masters 40-46,,56,,,,,,,,,,,,,,,,137.8,BD
1,Brandi Kary,F,CA,,,Single-ply,Masters 40-46,,75,,,,,,,,,,,,,,,,242.31,BD
1,Jennifer Sampson,F,MT,,,Raw,Masters 40-46,,75,,,,,,,,,,,,,,,,129.82,BD
1,Sophia Hussary,F,AZ,,,Raw,Masters 40-46,,82.5,,,,,,,,,,,,,,,,299.78,BD
1,Trisha Puou,F,HI,,,Single-ply,Masters 40-46,,90+,,,,,,,,,,,,,,,,322.37,BD
1,Trish Romano,F,AZ,,,Raw,Masters 40-46,,90+,,,,,,,,,,,,,,,,227.34,BD
1,Jeanne Nielsen,F,CA,,,Raw,Masters 47-53,,67.5,,,,,,,,,,,,,,,,234.82,BD
1,Melissa Benson,F,CO,,,Raw,Masters 47-53,,82.5,,,,,,,,,,,,,,,,164.84,BD
2,Mesha Blackwell,F,IL,,,Raw,Masters 47-53,,90,,,,,,,,,,,,,,,,229.84,BD
3,Laura Decanini,F,TX,,,Raw,Masters 47-53,,90,,,,,,,,,,,,,,,,139.8,BD
1,Mirtha Delatorre,F,CA,,,Multi-ply,Masters 47-53,,90,,,,,,,,,,,,,,,,259.77,BD
1,Akondaye Fountain,F,TX,,,Raw,Masters 47-53,,90,,,,,,,,,,,,,,,,262.36,BD
1,Sherry Shellenberger,F,AZ,,,Multi-ply,Masters 47-53,,100,,,,,,,,,,,,,,,,307.4,BD
1,Martha Godinez-Shim,F,HI,,,Multi-ply,Masters 54-60,,56,,,,,,,,,,,,,,,,197.9,BD
1,Beverly Anolin,F,CA,,,Single-ply,Masters 54-60,,75,,,,,,,,,,,,,,,,292.43,BD
1,Cindy Shockman,F,OR,,,Raw,Masters 54-60,,75,,,,,,,,,,,,,,,,327.86,BD
1,Artemira Sobrinho,F,,Brazil,,Raw,Masters 54-60,,82.5,,,,,,,,,,,,,,,,289.8,BD
1,Terri Aiwohi,F,HI,,,Raw,Masters 54-60,,90,,,,,,,,,,,,,,,,237.32,BD
1,Betty Hansen,F,CA,,,Multi-ply,Masters 61-67,,56,,,,,,,,,,,,,,,,199.9,BD
1,Laura Gonnering,F,AL,,,Raw,Masters 61-67,,67.5,,,,,,,,,,,,,,,,124.83,BD
1,Peach Presley,F,CA,,,Single-ply,Masters 61-67,,75,,,,,,,,,,,,,,,,259.77,BD
1,Rebecca Ralston,F,CO,,,Raw,Masters 68-74,,56,,,,,,,,,,,,,,,,142.29,BD
1,Marlene Wexler,F,MN,,,Raw,Masters 75-79,,90,,,,,,,,,,,,,,,,164.88,BD
1,Carrie Reese,F,CA,,,Raw,Masters 80-84,,56,,,,,,,,,,,,,,,,134.81,BD
1,Hobeen Lee,M,TN,,,Raw,Open,,60,,,,,,,,,,,,,,,,312.39,BD
2,Deron Agaran,M,HI,,,Raw,Open,,67.5,,,,,,,,,,,,,,,,320.37,BD
1,Oscar Martinez,M,WA,,,Raw,Open,,67.5,,,,,,,,,,,,,,,,350.94,BD
3,James Needles,M,WA,,,Raw,Open,,67.5,,,,,,,,,,,,,,,,244.89,BD
1,Ron Garofalo,M,CO,,,Raw,Open,,82.5,,,,,,,,,,,,,,,,427.37,BD
1,Mathew Carpentier,M,AZ,,,Raw,Open,,90,,,,,,,,,,,,,,,,332.35,BD
2,Jacob Hafen,M,NV,,,Raw,Open,,100,,,,,,,,,,,,,,,,374.89,BD
1,Devin-Jackson Kawewehi,M,HI,,,Raw,Open,,100,,,,,,,,,,,,,,,,459.9,BD
1,Jason Dexter,M,IN,,,Raw,Open,,110,,,,,,,,,,,,,,,,449.83,BD
1,Edwardo Elgart,M,,Argentina,,Multi-ply,Open,,110,,,,,,,,,,,,,,,,504.85,BD
DQ,Willard Crossen Jr,M,WA,,,Single-ply,Open,,117.5,,,,,,,,,,,,,,,,,BD
1,Nick Massey,M,CA,,,Multi-ply,Open,,117.5,,,,,,,,,,,,,,,,483.39,BD
1,Chaz Adams,M,HI,,,Raw,Open,,125,,,,,,,,,,,,,,,,437.35,BD
2,Billy Caughey,M,UT,,,Raw,Open,,125,,,,,,,,,,,,,,,,357.43,BD
1,Tom Pennella,M,WA,,,Single-ply,Open,,125,,,,,,,,,,,,,,,,492.33,BD
1,Tim Boyce,M,OK,,,Single-ply,Open,,140,,,,,,,,,,,,,,,,644.87,BD
1,River Newman,M,MT,,,Multi-ply,Open,,140,,,,,,,,,,,,,,,,524.9,BD
1,Jacob Wolford,M,AR,,,Raw,Open,,140,,,,,,,,,,,,,,,,312.39,BD
1,Johnathan Moore,M,FL,,,Raw,Open,,140+,,,,,,,,,,,,,,,,577.38,BD
2,Martha Godinez-Shim,F,HI,,,Multi-ply,Open,,56,,,,,,,,,,,,,,,,197.9,BD
1,April Hamon,F,TX,,,Single-ply,Open,,56,,,,,,,,,,,,,,,,229.84,BD
1,Betty Hansen,F,CA,,,Multi-ply,Open,,56,,,,,,,,,,,,,,,,199.9,BD
2,Jeanne Nielsen,F,CA,,,Raw,Open,,67.5,,,,,,,,,,,,,,,,234.82,BD
1,Alyssa Turose,F,AZ,,,Raw,Open,,67.5,,,,,,,,,,,,,,,,259.86,BD
2,Elisabeth Fruits,F,IN,,,Raw,Open,,75,,,,,,,,,,,,,,,,209.88,BD
2,Peach Presley,F,CA,,,Single-ply,Open,,75,,,,,,,,,,,,,,,,259.77,BD
3,Katie Redfield,F,MT,,,Raw,Open,,75,,,,,,,,,,,,,,,,199.9,BD
1,Cindy Shockman,F,OR,,,Raw,Open,,75,,,,,,,,,,,,,,,,327.86,BD
1,Janesa Yadao,F,HI,,,Single-ply,Open,,75,,,,,,,,,,,,,,,,305.4,BD
1,Makaiwa Kanui,F,HI,,,Raw,Open,,82.5,,,,,,,,,,,,,,,,240.4,BD
1,Natalie Caughey,F,UT,,,Single-ply,Open,,90,,,,,,,,,,,,,,,,232.33,BD
1,Mirtha Delatorre,F,CA,,,Multi-ply,Open,,90,,,,,,,,,,,,,,,,259.77,BD
1,Caylen Gapusan,F,WA,,,Multi-ply,Open,,100,,,,,,,,,,,,,,,,232.33,BD
2,Ashley Neal,F,AZ,,,Raw,Open,,90+,,,,,,,,,,,,,,,,252.29,BD
1,Trisha Puou,F,HI,,,Single-ply,Open,,90+,,,,,,,,,,,,,,,,322.37,BD
1,Marquita Snow-Whiten,F,IL,,,Raw,Open,,90+,,,,,,,,,,,,,,,,287.31,BD
1,Durrell Favor,M,AZ,,,Raw,Submasters 33-39,,82.5,,,,,,,,,,,,,,,,349.95,BD
1,Nathan Phipps,M,AZ,,,Raw,Submasters 33-39,,90,,,,,,,,,,,,,,,,334.84,BD
1,Brent Gapusan,M,WA,,,Multi-ply,Submasters 33-39,,110,,,,,,,,,,,,,,,,447.97,BD
1,Billy Caughey,M,UT,,,Raw,Submasters 33-39,,125,,,,,,,,,,,,,,,,357.43,BD
1,River Newman,M,MT,,,Multi-ply,Submasters 33-39,,140,,,,,,,,,,,,,,,,524.9,BD
2,Gary Panttila,M,AZ,,,Multi-ply,Submasters 33-39,,140,,,,,,,,,,,,,,,,479.86,BD
1,April Hamon,F,TX,,,Single-ply,Submasters 33-39,,56,,,,,,,,,,,,,,,,212.37,BD
2,Amber Salvador,F,HI,,,Raw,Submasters 33-39,,67.5,,,,,,,,,,,,,,,,189.83,BD
1,Marisa Boyns,F,CA,,,Single-ply,Submasters 33-39,,75,,,,,,,,,,,,,,,,257.37,BD
1,Jamie Farmer #1,F,MT,,,Raw,Submasters 33-39,,75,,,,,,,,,,,,,,,,224.94,BD
2,Elisabeth Fruits,F,IN,,,Raw,Submasters 33-39,,75,,,,,,,,,,,,,,,,209.88,BD
1,Teresa Thompson,F,ID,,,Raw,Submasters 33-39,,90,,,,,,,,,,,,,,,,244.89,BD
1,Caylen Gapusan,F,WA,,,Multi-ply,Submasters 33-39,,100,,,,,,,,,,,,,,,,239.81,BD
2,Carly Grennor,F,FL,,,Raw,Submasters 33-39,,90+,,,,,,,,,,,,,,,,202.39,BD
1,Marquita Snow-Whiten,F,IL,,,Raw,Submasters 33-39,,90+,,,,,,,,,,,,,,,,287.31,BD
1,Alyssa Turose,F,TX,,,Raw,Submasters 33-39,,67.5,,,,,,,,,,,,,,,,259.86,BD
1,Ashley Neal,F,AZ,,,Raw,Submasters 33-39,,90+,,,,,,,,,,,,,,,,252.29,BD
1,James Pritchett,M,AZ,,,Raw,Teen 12-13,,90,,,,,,,,,,,,,,,,172.37,BD
1,Chayden Bertelmann,M,HI,,,Raw,Teen 14-15,,60,,,,,,,,,,,,,,,,242.31,BD
2,Cody Jones,M,HI,,,Raw,Teen 14-15,,67.5,,,,,,,,,,,,,,,,249.88,BD
1,Talan Pichler,M,WI,,,Raw,Teen 14-15,,67.5,,,,,,,,,,,,,,,,282.32,BD
1,Ramiro Yanez III,M,TX,,,Raw,Teen 16-17,,75,,,,,,,,,,,,,,,,345.32,BD
DQ,Wyatt Cavanaugh,M,OK,,,Raw,Teen 16-17,,82.5,,,,,,,,,,,,,,,,,BD
1,Trevor Baune,M,ID,,,Raw,Teen 16-17,,117.5,,,,,,,,,,,,,,,,437.35,BD
1,Justin Ralston,M,AZ,,,Raw,Teen 16-17,,125,,,,,,,,,,,,,,,,299.92,BD
1,Kilihune Kanda,M,HI,,,Raw,Teen 16-17,,140,,,,,,,,,,,,,,,,364.92,BD
1,Creed Shellenberger,M,AZ,,,Raw,Teen 18-19,,82.5,,,,,,,,,,,,,,,,219.86,BD
DQ,David Soboyejo,M,AZ,,,Raw,Teen 18-19,,90,,,,,,,,,,,,,,,,,BD
1,Nicholas Anderson #7,M,AZ,,,Raw,Teen 18-19,,117.5,,,,,,,,,,,,,,,,274.83,BD
1,Joe Veith,M,MI,,,Raw,Teen 18-19,,140+,,,,,,,,,,,,,,,,394.85,BD
1,Piper Maddox,F,TX,,,Raw,Teen 14-15,,82.5,,,,,,,,,,,,,,,,158.76,BD
1,Trulayna Ballo-Saladino,F,HI,,,Raw,Teen 16-17,,52,,,,,,,,,,,,,,,,174.86,BD
1,Megan Carpenter,F,MT,,,Raw,Teen 16-17,,60,,,,,,,,,,,,,,,,184.93,BD
1,Lauren Needles,F,CA,,,Raw,Teen 16-17,,82.5,,,,,,,,,,,,,,,,199.9,BD
1,Kate Oebker,F,AZ,,,Raw,Teen 18-19,,75,,,,,,,,,,,,,,,,162.34,BD
